2022-03-08 09:06:21.655  INFO 14672 --- [main] c.b.exerciseBV.ExerciseBvApplication     : Starting ExerciseBvApplication on DESKTOP-G7PDN6O with PID 14672 (started by Mateo Gingr in C:\Users\Mateo Gingr\eclipse-workspace\exercisebv)
2022-03-08 09:06:21.664  INFO 14672 --- [main] c.b.exerciseBV.ExerciseBvApplication     : No active profile set, falling back to default profiles: default
2022-03-08 09:06:22.811  INFO 14672 --- [main] .s.d.r.c.RepositoryConfigurationDelegate : Bootstrapping Spring Data repositories in DEFAULT mode.
2022-03-08 09:06:22.986  INFO 14672 --- [main] .s.d.r.c.RepositoryConfigurationDelegate : Finished Spring Data repository scanning in 165ms. Found 1 repository interfaces.
2022-03-08 09:06:23.474  INFO 14672 --- [main] trationDelegate$BeanPostProcessorChecker : Bean 'org.springframework.transaction.annotation.ProxyTransactionManagementConfiguration' of type [org.springframework.transaction.annotation.ProxyTransactionManagementConfiguration$$EnhancerBySpringCGLIB$$9c827fe0] is not eligible for getting processed by all BeanPostProcessors (for example: not eligible for auto-proxying)
2022-03-08 09:06:23.862  INFO 14672 --- [main] o.s.b.w.embedded.tomcat.TomcatWebServer  : Tomcat initialized with port(s): 8080 (http)
2022-03-08 09:06:23.892  INFO 14672 --- [main] o.apache.catalina.core.StandardService   : Starting service [Tomcat]
2022-03-08 09:06:23.893  INFO 14672 --- [main] org.apache.catalina.core.StandardEngine  : Starting Servlet engine: [Apache Tomcat/9.0.17]
2022-03-08 09:06:24.060  INFO 14672 --- [main] o.a.c.c.C.[Tomcat].[localhost].[/]       : Initializing Spring embedded WebApplicationContext
2022-03-08 09:06:24.060  INFO 14672 --- [main] o.s.web.context.ContextLoader            : Root WebApplicationContext: initialization completed in 2346 ms
2022-03-08 09:06:24.707  INFO 14672 --- [main] com.zaxxer.hikari.HikariDataSource       : HikariPool-1 - Starting...
2022-03-08 09:06:24.888  INFO 14672 --- [main] com.zaxxer.hikari.HikariDataSource       : HikariPool-1 - Start completed.
2022-03-08 09:06:24.953  INFO 14672 --- [main] o.hibernate.jpa.internal.util.LogHelper  : HHH000204: Processing PersistenceUnitInfo [
	name: default
	...]
2022-03-08 09:06:25.076  INFO 14672 --- [main] org.hibernate.Version                    : HHH000412: Hibernate Core {5.3.9.Final}
2022-03-08 09:06:25.077  INFO 14672 --- [main] org.hibernate.cfg.Environment            : HHH000206: hibernate.properties not found
2022-03-08 09:06:25.306  INFO 14672 --- [main] o.hibernate.annotations.common.Version   : HCANN000001: Hibernate Commons Annotations {5.0.4.Final}
2022-03-08 09:06:25.492  INFO 14672 --- [main] org.hibernate.dialect.Dialect            : HHH000400: Using dialect: org.hibernate.dialect.H2Dialect
2022-03-08 09:06:26.150  INFO 14672 --- [main] o.h.t.schema.internal.SchemaCreatorImpl  : HHH000476: Executing import script 'org.hibernate.tool.schema.internal.exec.ScriptSourceInputNonExistentImpl@1942a36e'
2022-03-08 09:06:26.152  INFO 14672 --- [main] j.LocalContainerEntityManagerFactoryBean : Initialized JPA EntityManagerFactory for persistence unit 'default'
2022-03-08 09:06:26.549  INFO 14672 --- [main] o.s.s.concurrent.ThreadPoolTaskExecutor  : Initializing ExecutorService 'clientInboundChannelExecutor'
2022-03-08 09:06:26.553  INFO 14672 --- [main] o.s.s.concurrent.ThreadPoolTaskExecutor  : Initializing ExecutorService 'clientOutboundChannelExecutor'
2022-03-08 09:06:26.649  INFO 14672 --- [main] o.s.s.c.ThreadPoolTaskScheduler          : Initializing ExecutorService 'messageBrokerTaskScheduler'
2022-03-08 09:06:26.685  INFO 14672 --- [main] o.s.s.concurrent.ThreadPoolTaskExecutor  : Initializing ExecutorService 'brokerChannelExecutor'
2022-03-08 09:06:26.947  WARN 14672 --- [main] aWebConfiguration$JpaWebMvcConfiguration : spring.jpa.open-in-view is enabled by default. Therefore, database queries may be performed during view rendering. Explicitly configure spring.jpa.open-in-view to disable this warning
2022-03-08 09:06:27.013  INFO 14672 --- [main] o.s.b.a.w.s.WelcomePageHandlerMapping    : Adding welcome page: class path resource [static/index.html]
2022-03-08 09:06:27.255  INFO 14672 --- [main] o.s.b.a.e.web.EndpointLinksResolver      : Exposing 2 endpoint(s) beneath base path '/actuator'
2022-03-08 09:06:27.315  INFO 14672 --- [main] o.s.m.s.b.SimpleBrokerMessageHandler     : Starting...
2022-03-08 09:06:27.315  INFO 14672 --- [main] o.s.m.s.b.SimpleBrokerMessageHandler     : BrokerAvailabilityEvent[available=true, SimpleBrokerMessageHandler [DefaultSubscriptionRegistry[cache[0 destination(s)], registry[0 sessions]]]]
2022-03-08 09:06:27.316  INFO 14672 --- [main] o.s.m.s.b.SimpleBrokerMessageHandler     : Started.
2022-03-08 09:06:27.449  INFO 14672 --- [JMX connector] o.a.a.broker.jmx.ManagementContext       : JMX consoles can connect to service:jmx:rmi:///jndi/rmi://localhost:1099/jmxrmi
2022-03-08 09:06:27.463  INFO 14672 --- [main] o.a.a.store.kahadb.plist.PListStore      : PListStore:[C:\Users\Mateo Gingr\eclipse-workspace\exercisebv\activemq-data\localhost\tmp_storage] started
2022-03-08 09:06:27.466  INFO 14672 --- [main] o.apache.activemq.broker.BrokerService   : Using Persistence Adapter: KahaDBPersistenceAdapter[C:\Users\Mateo Gingr\eclipse-workspace\exercisebv\activemq-data\localhost\KahaDB]
2022-03-08 09:06:27.695  INFO 14672 --- [main] o.a.a.store.kahadb.MessageDatabase       : KahaDB is version 4
2022-03-08 09:06:27.707  INFO 14672 --- [main] o.a.a.store.kahadb.MessageDatabase       : Recovering from the journal ...
2022-03-08 09:06:27.708  INFO 14672 --- [main] o.a.a.store.kahadb.MessageDatabase       : Recovery replayed 1 operations from the journal in 0.007 seconds.
2022-03-08 09:06:27.894  INFO 14672 --- [main] o.apache.activemq.broker.BrokerService   : Apache ActiveMQ 5.7.0 (localhost, ID:DESKTOP-G7PDN6O-20563-1646726787724-0:1) is starting
2022-03-08 09:06:27.931  INFO 14672 --- [main] o.apache.activemq.broker.BrokerService   : Apache ActiveMQ 5.7.0 (localhost, ID:DESKTOP-G7PDN6O-20563-1646726787724-0:1) started
2022-03-08 09:06:27.932  INFO 14672 --- [main] o.apache.activemq.broker.BrokerService   : For help or more information please see: http://activemq.apache.org
2022-03-08 09:06:27.937  INFO 14672 --- [main] o.a.activemq.broker.TransportConnector   : Connector vm://localhost Started
2022-03-08 09:06:28.039 ERROR 14672 --- [main] org.apache.catalina.util.LifecycleBase   : Failed to start component [Connector[HTTP/1.1-8080]]

org.apache.catalina.LifecycleException: Protocol handler start failed
	at org.apache.catalina.connector.Connector.startInternal(Connector.java:1008) ~[tomcat-embed-core-9.0.17.jar:9.0.17]
	at org.apache.catalina.util.LifecycleBase.start(LifecycleBase.java:183) ~[tomcat-embed-core-9.0.17.jar:9.0.17]
	at org.apache.catalina.core.StandardService.addConnector(StandardService.java:226) ~[tomcat-embed-core-9.0.17.jar:9.0.17]
	at org.springframework.boot.web.embedded.tomcat.TomcatWebServer.addPreviouslyRemovedConnectors(TomcatWebServer.java:259) ~[spring-boot-2.1.4.RELEASE.jar:2.1.4.RELEASE]
	at org.springframework.boot.web.embedded.tomcat.TomcatWebServer.start(TomcatWebServer.java:197) ~[spring-boot-2.1.4.RELEASE.jar:2.1.4.RELEASE]
	at org.springframework.boot.web.servlet.context.ServletWebServerApplicationContext.startWebServer(ServletWebServerApplicationContext.java:311) ~[spring-boot-2.1.4.RELEASE.jar:2.1.4.RELEASE]
	at org.springframework.boot.web.servlet.context.ServletWebServerApplicationContext.finishRefresh(ServletWebServerApplicationContext.java:164) ~[spring-boot-2.1.4.RELEASE.jar:2.1.4.RELEASE]
	at org.springframework.context.support.AbstractApplicationContext.refresh(AbstractApplicationContext.java:552) ~[spring-context-5.1.6.RELEASE.jar:5.1.6.RELEASE]
	at org.springframework.boot.web.servlet.context.ServletWebServerApplicationContext.refresh(ServletWebServerApplicationContext.java:142) ~[spring-boot-2.1.4.RELEASE.jar:2.1.4.RELEASE]
	at org.springframework.boot.SpringApplication.refresh(SpringApplication.java:775) ~[spring-boot-2.1.4.RELEASE.jar:2.1.4.RELEASE]
	at org.springframework.boot.SpringApplication.refreshContext(SpringApplication.java:397) ~[spring-boot-2.1.4.RELEASE.jar:2.1.4.RELEASE]
	at org.springframework.boot.SpringApplication.run(SpringApplication.java:316) ~[spring-boot-2.1.4.RELEASE.jar:2.1.4.RELEASE]
	at org.springframework.boot.SpringApplication.run(SpringApplication.java:1260) ~[spring-boot-2.1.4.RELEASE.jar:2.1.4.RELEASE]
	at org.springframework.boot.SpringApplication.run(SpringApplication.java:1248) ~[spring-boot-2.1.4.RELEASE.jar:2.1.4.RELEASE]
	at com.apba.exerciseBV.ExerciseBvApplication.main(ExerciseBvApplication.java:15) ~[classes/:na]
Caused by: java.net.BindException: Address already in use: bind
	at java.base/sun.nio.ch.Net.bind0(Native Method) ~[na:na]
	at java.base/sun.nio.ch.Net.bind(Net.java:555) ~[na:na]
	at java.base/sun.nio.ch.ServerSocketChannelImpl.netBind(ServerSocketChannelImpl.java:337) ~[na:na]
	at java.base/sun.nio.ch.ServerSocketChannelImpl.bind(ServerSocketChannelImpl.java:294) ~[na:na]
	at java.base/sun.nio.ch.ServerSocketAdaptor.bind(ServerSocketAdaptor.java:89) ~[na:na]
	at org.apache.tomcat.util.net.NioEndpoint.initServerSocket(NioEndpoint.java:236) ~[tomcat-embed-core-9.0.17.jar:9.0.17]
	at org.apache.tomcat.util.net.NioEndpoint.bind(NioEndpoint.java:210) ~[tomcat-embed-core-9.0.17.jar:9.0.17]
	at org.apache.tomcat.util.net.AbstractEndpoint.bindWithCleanup(AbstractEndpoint.java:1103) ~[tomcat-embed-core-9.0.17.jar:9.0.17]
	at org.apache.tomcat.util.net.AbstractEndpoint.start(AbstractEndpoint.java:1189) ~[tomcat-embed-core-9.0.17.jar:9.0.17]
	at org.apache.coyote.AbstractProtocol.start(AbstractProtocol.java:568) ~[tomcat-embed-core-9.0.17.jar:9.0.17]
	at org.apache.catalina.connector.Connector.startInternal(Connector.java:1005) ~[tomcat-embed-core-9.0.17.jar:9.0.17]
	... 14 common frames omitted

2022-03-08 09:06:28.044  INFO 14672 --- [main] o.apache.catalina.core.StandardService   : Stopping service [Tomcat]
2022-03-08 09:06:28.051  INFO 14672 --- [main] ConditionEvaluationReportLoggingListener : 

Error starting ApplicationContext. To display the conditions report re-run your application with 'debug' enabled.
2022-03-08 09:06:28.053 ERROR 14672 --- [main] o.s.b.d.LoggingFailureAnalysisReporter   : 

***************************
APPLICATION FAILED TO START
***************************

Description:

The Tomcat connector configured to listen on port 8080 failed to start. The port may already be in use or the connector may be misconfigured.

Action:

Verify the connector's configuration, identify and stop any process that's listening on port 8080, or configure this application to listen on another port.

2022-03-08 09:06:28.055  INFO 14672 --- [main] o.s.m.s.b.SimpleBrokerMessageHandler     : Stopping...
2022-03-08 09:06:28.056  INFO 14672 --- [main] o.s.m.s.b.SimpleBrokerMessageHandler     : BrokerAvailabilityEvent[available=false, SimpleBrokerMessageHandler [DefaultSubscriptionRegistry[cache[0 destination(s)], registry[0 sessions]]]]
2022-03-08 09:06:28.056  INFO 14672 --- [main] o.s.m.s.b.SimpleBrokerMessageHandler     : Stopped.
2022-03-08 09:06:29.008  INFO 14672 --- [main] o.a.activemq.broker.TransportConnector   : Connector vm://localhost Stopped
2022-03-08 09:06:29.009  INFO 14672 --- [main] o.apache.activemq.broker.BrokerService   : Apache ActiveMQ 5.7.0 (localhost, ID:DESKTOP-G7PDN6O-20563-1646726787724-0:1) is shutting down
2022-03-08 09:06:29.016  INFO 14672 --- [main] o.a.a.store.kahadb.plist.PListStore      : PListStore:[C:\Users\Mateo Gingr\eclipse-workspace\exercisebv\activemq-data\localhost\tmp_storage] stopped
2022-03-08 09:06:29.017  INFO 14672 --- [main] o.a.activemq.store.kahadb.KahaDBStore    : Stopping async queue tasks
2022-03-08 09:06:29.018  INFO 14672 --- [main] o.a.activemq.store.kahadb.KahaDBStore    : Stopping async topic tasks
2022-03-08 09:06:29.019  INFO 14672 --- [main] o.a.activemq.store.kahadb.KahaDBStore    : Stopped KahaDB
2022-03-08 09:06:29.221  INFO 14672 --- [main] o.apache.activemq.broker.BrokerService   : Apache ActiveMQ 5.7.0 (localhost, ID:DESKTOP-G7PDN6O-20563-1646726787724-0:1) uptime 1.880 seconds
2022-03-08 09:06:29.221  INFO 14672 --- [main] o.apache.activemq.broker.BrokerService   : Apache ActiveMQ 5.7.0 (localhost, ID:DESKTOP-G7PDN6O-20563-1646726787724-0:1) is shutdown
2022-03-08 09:06:29.236  INFO 14672 --- [main] o.s.s.concurrent.ThreadPoolTaskExecutor  : Shutting down ExecutorService 'brokerChannelExecutor'
2022-03-08 09:06:29.236  INFO 14672 --- [main] o.s.s.c.ThreadPoolTaskScheduler          : Shutting down ExecutorService 'messageBrokerTaskScheduler'
2022-03-08 09:06:29.237  INFO 14672 --- [main] o.s.s.concurrent.ThreadPoolTaskExecutor  : Shutting down ExecutorService 'clientOutboundChannelExecutor'
2022-03-08 09:06:29.238  INFO 14672 --- [main] o.s.s.concurrent.ThreadPoolTaskExecutor  : Shutting down ExecutorService 'clientInboundChannelExecutor'
2022-03-08 09:06:29.238  INFO 14672 --- [main] j.LocalContainerEntityManagerFactoryBean : Closing JPA EntityManagerFactory for persistence unit 'default'
2022-03-08 09:06:29.240  INFO 14672 --- [main] com.zaxxer.hikari.HikariDataSource       : HikariPool-1 - Shutdown initiated...
2022-03-08 09:06:29.244  INFO 14672 --- [main] com.zaxxer.hikari.HikariDataSource       : HikariPool-1 - Shutdown completed.
2022-03-08 09:07:17.739  INFO 7488 --- [main] c.b.exerciseBV.ExerciseBvApplication     : Starting ExerciseBvApplication on DESKTOP-G7PDN6O with PID 7488 (started by Mateo Gingr in C:\Users\Mateo Gingr\eclipse-workspace\exercisebv)
2022-03-08 09:07:17.743  INFO 7488 --- [main] c.b.exerciseBV.ExerciseBvApplication     : No active profile set, falling back to default profiles: default
2022-03-08 09:07:18.754  INFO 7488 --- [main] .s.d.r.c.RepositoryConfigurationDelegate : Bootstrapping Spring Data repositories in DEFAULT mode.
2022-03-08 09:07:18.888  INFO 7488 --- [main] .s.d.r.c.RepositoryConfigurationDelegate : Finished Spring Data repository scanning in 122ms. Found 1 repository interfaces.
2022-03-08 09:07:19.360  INFO 7488 --- [main] trationDelegate$BeanPostProcessorChecker : Bean 'org.springframework.transaction.annotation.ProxyTransactionManagementConfiguration' of type [org.springframework.transaction.annotation.ProxyTransactionManagementConfiguration$$EnhancerBySpringCGLIB$$4652475c] is not eligible for getting processed by all BeanPostProcessors (for example: not eligible for auto-proxying)
2022-03-08 09:07:19.717  INFO 7488 --- [main] o.s.b.w.embedded.tomcat.TomcatWebServer  : Tomcat initialized with port(s): 8080 (http)
2022-03-08 09:07:19.753  INFO 7488 --- [main] o.apache.catalina.core.StandardService   : Starting service [Tomcat]
2022-03-08 09:07:19.753  INFO 7488 --- [main] org.apache.catalina.core.StandardEngine  : Starting Servlet engine: [Apache Tomcat/9.0.17]
2022-03-08 09:07:19.913  INFO 7488 --- [main] o.a.c.c.C.[Tomcat].[localhost].[/]       : Initializing Spring embedded WebApplicationContext
2022-03-08 09:07:19.913  INFO 7488 --- [main] o.s.web.context.ContextLoader            : Root WebApplicationContext: initialization completed in 2128 ms
2022-03-08 09:07:20.505  INFO 7488 --- [main] com.zaxxer.hikari.HikariDataSource       : HikariPool-1 - Starting...
2022-03-08 09:07:20.658  INFO 7488 --- [main] com.zaxxer.hikari.HikariDataSource       : HikariPool-1 - Start completed.
2022-03-08 09:07:20.715  INFO 7488 --- [main] o.hibernate.jpa.internal.util.LogHelper  : HHH000204: Processing PersistenceUnitInfo [
	name: default
	...]
2022-03-08 09:07:20.804  INFO 7488 --- [main] org.hibernate.Version                    : HHH000412: Hibernate Core {5.3.9.Final}
2022-03-08 09:07:20.805  INFO 7488 --- [main] org.hibernate.cfg.Environment            : HHH000206: hibernate.properties not found
2022-03-08 09:07:20.951  INFO 7488 --- [main] o.hibernate.annotations.common.Version   : HCANN000001: Hibernate Commons Annotations {5.0.4.Final}
2022-03-08 09:07:21.095  INFO 7488 --- [main] org.hibernate.dialect.Dialect            : HHH000400: Using dialect: org.hibernate.dialect.H2Dialect
2022-03-08 09:07:21.643  INFO 7488 --- [main] o.h.t.schema.internal.SchemaCreatorImpl  : HHH000476: Executing import script 'org.hibernate.tool.schema.internal.exec.ScriptSourceInputNonExistentImpl@f60c14e'
2022-03-08 09:07:21.645  INFO 7488 --- [main] j.LocalContainerEntityManagerFactoryBean : Initialized JPA EntityManagerFactory for persistence unit 'default'
2022-03-08 09:07:22.040  INFO 7488 --- [main] o.s.s.concurrent.ThreadPoolTaskExecutor  : Initializing ExecutorService 'clientInboundChannelExecutor'
2022-03-08 09:07:22.045  INFO 7488 --- [main] o.s.s.concurrent.ThreadPoolTaskExecutor  : Initializing ExecutorService 'clientOutboundChannelExecutor'
2022-03-08 09:07:22.126  INFO 7488 --- [main] o.s.s.c.ThreadPoolTaskScheduler          : Initializing ExecutorService 'messageBrokerTaskScheduler'
2022-03-08 09:07:22.162  INFO 7488 --- [main] o.s.s.concurrent.ThreadPoolTaskExecutor  : Initializing ExecutorService 'brokerChannelExecutor'
2022-03-08 09:07:22.406  WARN 7488 --- [main] aWebConfiguration$JpaWebMvcConfiguration : spring.jpa.open-in-view is enabled by default. Therefore, database queries may be performed during view rendering. Explicitly configure spring.jpa.open-in-view to disable this warning
2022-03-08 09:07:22.476  INFO 7488 --- [main] o.s.b.a.w.s.WelcomePageHandlerMapping    : Adding welcome page: class path resource [static/index.html]
2022-03-08 09:07:22.703  INFO 7488 --- [main] o.s.b.a.e.web.EndpointLinksResolver      : Exposing 2 endpoint(s) beneath base path '/actuator'
2022-03-08 09:07:22.765  INFO 7488 --- [main] o.s.m.s.b.SimpleBrokerMessageHandler     : Starting...
2022-03-08 09:07:22.766  INFO 7488 --- [main] o.s.m.s.b.SimpleBrokerMessageHandler     : BrokerAvailabilityEvent[available=true, SimpleBrokerMessageHandler [DefaultSubscriptionRegistry[cache[0 destination(s)], registry[0 sessions]]]]
2022-03-08 09:07:22.766  INFO 7488 --- [main] o.s.m.s.b.SimpleBrokerMessageHandler     : Started.
2022-03-08 09:07:22.879  INFO 7488 --- [JMX connector] o.a.a.broker.jmx.ManagementContext       : JMX consoles can connect to service:jmx:rmi:///jndi/rmi://localhost:1099/jmxrmi
2022-03-08 09:07:22.894  INFO 7488 --- [main] o.a.a.store.kahadb.plist.PListStore      : PListStore:[C:\Users\Mateo Gingr\eclipse-workspace\exercisebv\activemq-data\localhost\tmp_storage] started
2022-03-08 09:07:22.897  INFO 7488 --- [main] o.apache.activemq.broker.BrokerService   : Using Persistence Adapter: KahaDBPersistenceAdapter[C:\Users\Mateo Gingr\eclipse-workspace\exercisebv\activemq-data\localhost\KahaDB]
2022-03-08 09:07:23.160  INFO 7488 --- [main] o.a.a.store.kahadb.MessageDatabase       : KahaDB is version 4
2022-03-08 09:07:23.172  INFO 7488 --- [main] o.a.a.store.kahadb.MessageDatabase       : Recovering from the journal ...
2022-03-08 09:07:23.173  INFO 7488 --- [main] o.a.a.store.kahadb.MessageDatabase       : Recovery replayed 1 operations from the journal in 0.007 seconds.
2022-03-08 09:07:23.306  INFO 7488 --- [main] o.apache.activemq.broker.BrokerService   : Apache ActiveMQ 5.7.0 (localhost, ID:DESKTOP-G7PDN6O-20578-1646726843187-0:1) is starting
2022-03-08 09:07:23.337  INFO 7488 --- [main] o.apache.activemq.broker.BrokerService   : Apache ActiveMQ 5.7.0 (localhost, ID:DESKTOP-G7PDN6O-20578-1646726843187-0:1) started
2022-03-08 09:07:23.337  INFO 7488 --- [main] o.apache.activemq.broker.BrokerService   : For help or more information please see: http://activemq.apache.org
2022-03-08 09:07:23.342  INFO 7488 --- [main] o.a.activemq.broker.TransportConnector   : Connector vm://localhost Started
2022-03-08 09:07:23.421 ERROR 7488 --- [main] org.apache.catalina.util.LifecycleBase   : Failed to start component [Connector[HTTP/1.1-8080]]

org.apache.catalina.LifecycleException: Protocol handler start failed
	at org.apache.catalina.connector.Connector.startInternal(Connector.java:1008) ~[tomcat-embed-core-9.0.17.jar:9.0.17]
	at org.apache.catalina.util.LifecycleBase.start(LifecycleBase.java:183) ~[tomcat-embed-core-9.0.17.jar:9.0.17]
	at org.apache.catalina.core.StandardService.addConnector(StandardService.java:226) ~[tomcat-embed-core-9.0.17.jar:9.0.17]
	at org.springframework.boot.web.embedded.tomcat.TomcatWebServer.addPreviouslyRemovedConnectors(TomcatWebServer.java:259) ~[spring-boot-2.1.4.RELEASE.jar:2.1.4.RELEASE]
	at org.springframework.boot.web.embedded.tomcat.TomcatWebServer.start(TomcatWebServer.java:197) ~[spring-boot-2.1.4.RELEASE.jar:2.1.4.RELEASE]
	at org.springframework.boot.web.servlet.context.ServletWebServerApplicationContext.startWebServer(ServletWebServerApplicationContext.java:311) ~[spring-boot-2.1.4.RELEASE.jar:2.1.4.RELEASE]
	at org.springframework.boot.web.servlet.context.ServletWebServerApplicationContext.finishRefresh(ServletWebServerApplicationContext.java:164) ~[spring-boot-2.1.4.RELEASE.jar:2.1.4.RELEASE]
	at org.springframework.context.support.AbstractApplicationContext.refresh(AbstractApplicationContext.java:552) ~[spring-context-5.1.6.RELEASE.jar:5.1.6.RELEASE]
	at org.springframework.boot.web.servlet.context.ServletWebServerApplicationContext.refresh(ServletWebServerApplicationContext.java:142) ~[spring-boot-2.1.4.RELEASE.jar:2.1.4.RELEASE]
	at org.springframework.boot.SpringApplication.refresh(SpringApplication.java:775) ~[spring-boot-2.1.4.RELEASE.jar:2.1.4.RELEASE]
	at org.springframework.boot.SpringApplication.refreshContext(SpringApplication.java:397) ~[spring-boot-2.1.4.RELEASE.jar:2.1.4.RELEASE]
	at org.springframework.boot.SpringApplication.run(SpringApplication.java:316) ~[spring-boot-2.1.4.RELEASE.jar:2.1.4.RELEASE]
	at org.springframework.boot.SpringApplication.run(SpringApplication.java:1260) ~[spring-boot-2.1.4.RELEASE.jar:2.1.4.RELEASE]
	at org.springframework.boot.SpringApplication.run(SpringApplication.java:1248) ~[spring-boot-2.1.4.RELEASE.jar:2.1.4.RELEASE]
	at com.apba.exerciseBV.ExerciseBvApplication.main(ExerciseBvApplication.java:15) ~[classes/:na]
Caused by: java.net.BindException: Address already in use: bind
	at java.base/sun.nio.ch.Net.bind0(Native Method) ~[na:na]
	at java.base/sun.nio.ch.Net.bind(Net.java:555) ~[na:na]
	at java.base/sun.nio.ch.ServerSocketChannelImpl.netBind(ServerSocketChannelImpl.java:337) ~[na:na]
	at java.base/sun.nio.ch.ServerSocketChannelImpl.bind(ServerSocketChannelImpl.java:294) ~[na:na]
	at java.base/sun.nio.ch.ServerSocketAdaptor.bind(ServerSocketAdaptor.java:89) ~[na:na]
	at org.apache.tomcat.util.net.NioEndpoint.initServerSocket(NioEndpoint.java:236) ~[tomcat-embed-core-9.0.17.jar:9.0.17]
	at org.apache.tomcat.util.net.NioEndpoint.bind(NioEndpoint.java:210) ~[tomcat-embed-core-9.0.17.jar:9.0.17]
	at org.apache.tomcat.util.net.AbstractEndpoint.bindWithCleanup(AbstractEndpoint.java:1103) ~[tomcat-embed-core-9.0.17.jar:9.0.17]
	at org.apache.tomcat.util.net.AbstractEndpoint.start(AbstractEndpoint.java:1189) ~[tomcat-embed-core-9.0.17.jar:9.0.17]
	at org.apache.coyote.AbstractProtocol.start(AbstractProtocol.java:568) ~[tomcat-embed-core-9.0.17.jar:9.0.17]
	at org.apache.catalina.connector.Connector.startInternal(Connector.java:1005) ~[tomcat-embed-core-9.0.17.jar:9.0.17]
	... 14 common frames omitted

2022-03-08 09:07:23.427  INFO 7488 --- [main] o.apache.catalina.core.StandardService   : Stopping service [Tomcat]
2022-03-08 09:07:23.433  INFO 7488 --- [main] ConditionEvaluationReportLoggingListener : 

Error starting ApplicationContext. To display the conditions report re-run your application with 'debug' enabled.
2022-03-08 09:07:23.435 ERROR 7488 --- [main] o.s.b.d.LoggingFailureAnalysisReporter   : 

***************************
APPLICATION FAILED TO START
***************************

Description:

The Tomcat connector configured to listen on port 8080 failed to start. The port may already be in use or the connector may be misconfigured.

Action:

Verify the connector's configuration, identify and stop any process that's listening on port 8080, or configure this application to listen on another port.

2022-03-08 09:07:23.437  INFO 7488 --- [main] o.s.m.s.b.SimpleBrokerMessageHandler     : Stopping...
2022-03-08 09:07:23.438  INFO 7488 --- [main] o.s.m.s.b.SimpleBrokerMessageHandler     : BrokerAvailabilityEvent[available=false, SimpleBrokerMessageHandler [DefaultSubscriptionRegistry[cache[0 destination(s)], registry[0 sessions]]]]
2022-03-08 09:07:23.438  INFO 7488 --- [main] o.s.m.s.b.SimpleBrokerMessageHandler     : Stopped.
2022-03-08 09:07:24.415  INFO 7488 --- [main] o.a.activemq.broker.TransportConnector   : Connector vm://localhost Stopped
2022-03-08 09:07:24.416  INFO 7488 --- [main] o.apache.activemq.broker.BrokerService   : Apache ActiveMQ 5.7.0 (localhost, ID:DESKTOP-G7PDN6O-20578-1646726843187-0:1) is shutting down
2022-03-08 09:07:24.421  INFO 7488 --- [main] o.a.a.store.kahadb.plist.PListStore      : PListStore:[C:\Users\Mateo Gingr\eclipse-workspace\exercisebv\activemq-data\localhost\tmp_storage] stopped
2022-03-08 09:07:24.422  INFO 7488 --- [main] o.a.activemq.store.kahadb.KahaDBStore    : Stopping async queue tasks
2022-03-08 09:07:24.422  INFO 7488 --- [main] o.a.activemq.store.kahadb.KahaDBStore    : Stopping async topic tasks
2022-03-08 09:07:24.422  INFO 7488 --- [main] o.a.activemq.store.kahadb.KahaDBStore    : Stopped KahaDB
2022-03-08 09:07:24.688  INFO 7488 --- [main] o.apache.activemq.broker.BrokerService   : Apache ActiveMQ 5.7.0 (localhost, ID:DESKTOP-G7PDN6O-20578-1646726843187-0:1) uptime 1.897 seconds
2022-03-08 09:07:24.688  INFO 7488 --- [main] o.apache.activemq.broker.BrokerService   : Apache ActiveMQ 5.7.0 (localhost, ID:DESKTOP-G7PDN6O-20578-1646726843187-0:1) is shutdown
2022-03-08 09:07:24.693  INFO 7488 --- [main] o.s.s.concurrent.ThreadPoolTaskExecutor  : Shutting down ExecutorService 'brokerChannelExecutor'
2022-03-08 09:07:24.695  INFO 7488 --- [main] o.s.s.c.ThreadPoolTaskScheduler          : Shutting down ExecutorService 'messageBrokerTaskScheduler'
2022-03-08 09:07:24.697  INFO 7488 --- [main] o.s.s.concurrent.ThreadPoolTaskExecutor  : Shutting down ExecutorService 'clientOutboundChannelExecutor'
2022-03-08 09:07:24.698  INFO 7488 --- [main] o.s.s.concurrent.ThreadPoolTaskExecutor  : Shutting down ExecutorService 'clientInboundChannelExecutor'
2022-03-08 09:07:24.699  INFO 7488 --- [main] j.LocalContainerEntityManagerFactoryBean : Closing JPA EntityManagerFactory for persistence unit 'default'
2022-03-08 09:07:24.705  INFO 7488 --- [main] com.zaxxer.hikari.HikariDataSource       : HikariPool-1 - Shutdown initiated...
2022-03-08 09:07:24.712  INFO 7488 --- [main] com.zaxxer.hikari.HikariDataSource       : HikariPool-1 - Shutdown completed.
2022-03-08 09:13:40.501  INFO 14864 --- [main] c.b.exerciseBV.ExerciseBvApplication     : Starting ExerciseBvApplication on DESKTOP-G7PDN6O with PID 14864 (started by Mateo Gingr in C:\Users\Mateo Gingr\eclipse-workspace\exercisebv)
2022-03-08 09:13:40.504  INFO 14864 --- [main] c.b.exerciseBV.ExerciseBvApplication     : No active profile set, falling back to default profiles: default
2022-03-08 09:13:41.582  INFO 14864 --- [main] .s.d.r.c.RepositoryConfigurationDelegate : Bootstrapping Spring Data repositories in DEFAULT mode.
2022-03-08 09:13:41.765  INFO 14864 --- [main] .s.d.r.c.RepositoryConfigurationDelegate : Finished Spring Data repository scanning in 173ms. Found 1 repository interfaces.
2022-03-08 09:13:42.330  INFO 14864 --- [main] trationDelegate$BeanPostProcessorChecker : Bean 'org.springframework.transaction.annotation.ProxyTransactionManagementConfiguration' of type [org.springframework.transaction.annotation.ProxyTransactionManagementConfiguration$$EnhancerBySpringCGLIB$$80c547d4] is not eligible for getting processed by all BeanPostProcessors (for example: not eligible for auto-proxying)
2022-03-08 09:13:42.728  INFO 14864 --- [main] o.s.b.w.embedded.tomcat.TomcatWebServer  : Tomcat initialized with port(s): 8080 (http)
2022-03-08 09:13:42.764  INFO 14864 --- [main] o.apache.catalina.core.StandardService   : Starting service [Tomcat]
2022-03-08 09:13:42.765  INFO 14864 --- [main] org.apache.catalina.core.StandardEngine  : Starting Servlet engine: [Apache Tomcat/9.0.17]
2022-03-08 09:13:42.963  INFO 14864 --- [main] o.a.c.c.C.[Tomcat].[localhost].[/]       : Initializing Spring embedded WebApplicationContext
2022-03-08 09:13:42.963  INFO 14864 --- [main] o.s.web.context.ContextLoader            : Root WebApplicationContext: initialization completed in 2409 ms
2022-03-08 09:13:43.653  INFO 14864 --- [main] com.zaxxer.hikari.HikariDataSource       : HikariPool-1 - Starting...
2022-03-08 09:13:43.816  INFO 14864 --- [main] com.zaxxer.hikari.HikariDataSource       : HikariPool-1 - Start completed.
2022-03-08 09:13:43.871  INFO 14864 --- [main] o.hibernate.jpa.internal.util.LogHelper  : HHH000204: Processing PersistenceUnitInfo [
	name: default
	...]
2022-03-08 09:13:43.957  INFO 14864 --- [main] org.hibernate.Version                    : HHH000412: Hibernate Core {5.3.9.Final}
2022-03-08 09:13:43.959  INFO 14864 --- [main] org.hibernate.cfg.Environment            : HHH000206: hibernate.properties not found
2022-03-08 09:13:44.107  INFO 14864 --- [main] o.hibernate.annotations.common.Version   : HCANN000001: Hibernate Commons Annotations {5.0.4.Final}
2022-03-08 09:13:44.251  INFO 14864 --- [main] org.hibernate.dialect.Dialect            : HHH000400: Using dialect: org.hibernate.dialect.H2Dialect
2022-03-08 09:13:44.812  INFO 14864 --- [main] o.h.t.schema.internal.SchemaCreatorImpl  : HHH000476: Executing import script 'org.hibernate.tool.schema.internal.exec.ScriptSourceInputNonExistentImpl@40a84ea8'
2022-03-08 09:13:44.814  INFO 14864 --- [main] j.LocalContainerEntityManagerFactoryBean : Initialized JPA EntityManagerFactory for persistence unit 'default'
2022-03-08 09:13:45.182  INFO 14864 --- [main] o.s.s.concurrent.ThreadPoolTaskExecutor  : Initializing ExecutorService 'clientInboundChannelExecutor'
2022-03-08 09:13:45.187  INFO 14864 --- [main] o.s.s.concurrent.ThreadPoolTaskExecutor  : Initializing ExecutorService 'clientOutboundChannelExecutor'
2022-03-08 09:13:45.272  INFO 14864 --- [main] o.s.s.c.ThreadPoolTaskScheduler          : Initializing ExecutorService 'messageBrokerTaskScheduler'
2022-03-08 09:13:45.300  INFO 14864 --- [main] o.s.s.concurrent.ThreadPoolTaskExecutor  : Initializing ExecutorService 'brokerChannelExecutor'
2022-03-08 09:13:45.545  WARN 14864 --- [main] aWebConfiguration$JpaWebMvcConfiguration : spring.jpa.open-in-view is enabled by default. Therefore, database queries may be performed during view rendering. Explicitly configure spring.jpa.open-in-view to disable this warning
2022-03-08 09:13:45.601  INFO 14864 --- [main] o.s.b.a.w.s.WelcomePageHandlerMapping    : Adding welcome page: class path resource [static/index.html]
2022-03-08 09:13:45.835  INFO 14864 --- [main] o.s.b.a.e.web.EndpointLinksResolver      : Exposing 2 endpoint(s) beneath base path '/actuator'
2022-03-08 09:13:45.895  INFO 14864 --- [main] o.s.m.s.b.SimpleBrokerMessageHandler     : Starting...
2022-03-08 09:13:45.895  INFO 14864 --- [main] o.s.m.s.b.SimpleBrokerMessageHandler     : BrokerAvailabilityEvent[available=true, SimpleBrokerMessageHandler [DefaultSubscriptionRegistry[cache[0 destination(s)], registry[0 sessions]]]]
2022-03-08 09:13:45.896  INFO 14864 --- [main] o.s.m.s.b.SimpleBrokerMessageHandler     : Started.
2022-03-08 09:13:45.989  INFO 14864 --- [JMX connector] o.a.a.broker.jmx.ManagementContext       : JMX consoles can connect to service:jmx:rmi:///jndi/rmi://localhost:1099/jmxrmi
2022-03-08 09:13:45.999  INFO 14864 --- [main] o.a.a.store.kahadb.plist.PListStore      : PListStore:[C:\Users\Mateo Gingr\eclipse-workspace\exercisebv\activemq-data\localhost\tmp_storage] started
2022-03-08 09:13:46.001  INFO 14864 --- [main] o.apache.activemq.broker.BrokerService   : Using Persistence Adapter: KahaDBPersistenceAdapter[C:\Users\Mateo Gingr\eclipse-workspace\exercisebv\activemq-data\localhost\KahaDB]
2022-03-08 09:13:46.214  INFO 14864 --- [main] o.a.a.store.kahadb.MessageDatabase       : KahaDB is version 4
2022-03-08 09:13:46.224  INFO 14864 --- [main] o.a.a.store.kahadb.MessageDatabase       : Recovering from the journal ...
2022-03-08 09:13:46.226  INFO 14864 --- [main] o.a.a.store.kahadb.MessageDatabase       : Recovery replayed 1 operations from the journal in 0.007 seconds.
2022-03-08 09:13:46.384  INFO 14864 --- [main] o.apache.activemq.broker.BrokerService   : Apache ActiveMQ 5.7.0 (localhost, ID:DESKTOP-G7PDN6O-20695-1646727226241-0:1) is starting
2022-03-08 09:13:46.418  INFO 14864 --- [main] o.apache.activemq.broker.BrokerService   : Apache ActiveMQ 5.7.0 (localhost, ID:DESKTOP-G7PDN6O-20695-1646727226241-0:1) started
2022-03-08 09:13:46.418  INFO 14864 --- [main] o.apache.activemq.broker.BrokerService   : For help or more information please see: http://activemq.apache.org
2022-03-08 09:13:46.427  INFO 14864 --- [main] o.a.activemq.broker.TransportConnector   : Connector vm://localhost Started
2022-03-08 09:13:46.510  INFO 14864 --- [main] o.s.b.w.embedded.tomcat.TomcatWebServer  : Tomcat started on port(s): 8080 (http) with context path ''
2022-03-08 09:13:46.512  INFO 14864 --- [main] c.b.exerciseBV.ExerciseBvApplication     : Started ExerciseBvApplication in 6.376 seconds (JVM running for 6.814)
2022-03-08 09:14:45.301  INFO 14864 --- [MessageBroker-1] o.s.w.s.c.WebSocketMessageBrokerStats    : WebSocketSession[0 current WS(0)-HttpStream(0)-HttpPoll(0), 0 total, 0 closed abnormally (0 connect failure, 0 send limit, 0 transport error)], stompSubProtocol[processed CONNECT(0)-CONNECTED(0)-DISCONNECT(0)], stompBrokerRelay[null], inboundChannel[pool size = 0, active threads = 0, queued tasks = 0, completed tasks = 0], outboundChannel[pool size = 0, active threads = 0, queued tasks = 0, completed tasks = 0], sockJsScheduler[pool size = 1, active threads = 1, queued tasks = 0, completed tasks = 0]
2022-03-08 09:24:16.887  INFO 8812 --- [main] com.apba.exercise.ExerciseBvApplication  : Starting ExerciseBvApplication on DESKTOP-G7PDN6O with PID 8812 (started by Mateo Gingr in C:\Users\Mateo Gingr\eclipse-workspace\exerciseAPBA)
2022-03-08 09:24:16.890  INFO 8812 --- [main] com.apba.exercise.ExerciseBvApplication  : No active profile set, falling back to default profiles: default
2022-03-08 09:24:17.946  INFO 8812 --- [main] .s.d.r.c.RepositoryConfigurationDelegate : Bootstrapping Spring Data repositories in DEFAULT mode.
2022-03-08 09:24:18.060  INFO 8812 --- [main] .s.d.r.c.RepositoryConfigurationDelegate : Finished Spring Data repository scanning in 106ms. Found 1 repository interfaces.
2022-03-08 09:24:18.545  INFO 8812 --- [main] trationDelegate$BeanPostProcessorChecker : Bean 'org.springframework.transaction.annotation.ProxyTransactionManagementConfiguration' of type [org.springframework.transaction.annotation.ProxyTransactionManagementConfiguration$$EnhancerBySpringCGLIB$$290c5f3f] is not eligible for getting processed by all BeanPostProcessors (for example: not eligible for auto-proxying)
2022-03-08 09:24:18.900  INFO 8812 --- [main] o.s.b.w.embedded.tomcat.TomcatWebServer  : Tomcat initialized with port(s): 8080 (http)
2022-03-08 09:24:18.936  INFO 8812 --- [main] o.apache.catalina.core.StandardService   : Starting service [Tomcat]
2022-03-08 09:24:18.936  INFO 8812 --- [main] org.apache.catalina.core.StandardEngine  : Starting Servlet engine: [Apache Tomcat/9.0.17]
2022-03-08 09:24:19.096  INFO 8812 --- [main] o.a.c.c.C.[Tomcat].[localhost].[/]       : Initializing Spring embedded WebApplicationContext
2022-03-08 09:24:19.096  INFO 8812 --- [main] o.s.web.context.ContextLoader            : Root WebApplicationContext: initialization completed in 2158 ms
2022-03-08 09:24:19.700  INFO 8812 --- [main] com.zaxxer.hikari.HikariDataSource       : HikariPool-1 - Starting...
2022-03-08 09:24:19.856  INFO 8812 --- [main] com.zaxxer.hikari.HikariDataSource       : HikariPool-1 - Start completed.
2022-03-08 09:24:19.918  INFO 8812 --- [main] o.hibernate.jpa.internal.util.LogHelper  : HHH000204: Processing PersistenceUnitInfo [
	name: default
	...]
2022-03-08 09:24:19.994  INFO 8812 --- [main] org.hibernate.Version                    : HHH000412: Hibernate Core {5.3.9.Final}
2022-03-08 09:24:19.996  INFO 8812 --- [main] org.hibernate.cfg.Environment            : HHH000206: hibernate.properties not found
2022-03-08 09:24:20.139  INFO 8812 --- [main] o.hibernate.annotations.common.Version   : HCANN000001: Hibernate Commons Annotations {5.0.4.Final}
2022-03-08 09:24:20.286  INFO 8812 --- [main] org.hibernate.dialect.Dialect            : HHH000400: Using dialect: org.hibernate.dialect.H2Dialect
2022-03-08 09:24:20.892  INFO 8812 --- [main] o.h.t.schema.internal.SchemaCreatorImpl  : HHH000476: Executing import script 'org.hibernate.tool.schema.internal.exec.ScriptSourceInputNonExistentImpl@5e9f1a4c'
2022-03-08 09:24:20.895  INFO 8812 --- [main] j.LocalContainerEntityManagerFactoryBean : Initialized JPA EntityManagerFactory for persistence unit 'default'
2022-03-08 09:24:21.288  INFO 8812 --- [main] o.s.s.concurrent.ThreadPoolTaskExecutor  : Initializing ExecutorService 'clientInboundChannelExecutor'
2022-03-08 09:24:21.293  INFO 8812 --- [main] o.s.s.concurrent.ThreadPoolTaskExecutor  : Initializing ExecutorService 'clientOutboundChannelExecutor'
2022-03-08 09:24:21.373  INFO 8812 --- [main] o.s.s.c.ThreadPoolTaskScheduler          : Initializing ExecutorService 'messageBrokerTaskScheduler'
2022-03-08 09:24:21.405  INFO 8812 --- [main] o.s.s.concurrent.ThreadPoolTaskExecutor  : Initializing ExecutorService 'brokerChannelExecutor'
2022-03-08 09:24:21.645  WARN 8812 --- [main] aWebConfiguration$JpaWebMvcConfiguration : spring.jpa.open-in-view is enabled by default. Therefore, database queries may be performed during view rendering. Explicitly configure spring.jpa.open-in-view to disable this warning
2022-03-08 09:24:21.705  INFO 8812 --- [main] o.s.b.a.w.s.WelcomePageHandlerMapping    : Adding welcome page: class path resource [static/index.html]
2022-03-08 09:24:21.954  INFO 8812 --- [main] o.s.b.a.e.web.EndpointLinksResolver      : Exposing 2 endpoint(s) beneath base path '/actuator'
2022-03-08 09:24:22.018  INFO 8812 --- [main] o.s.m.s.b.SimpleBrokerMessageHandler     : Starting...
2022-03-08 09:24:22.018  INFO 8812 --- [main] o.s.m.s.b.SimpleBrokerMessageHandler     : BrokerAvailabilityEvent[available=true, SimpleBrokerMessageHandler [DefaultSubscriptionRegistry[cache[0 destination(s)], registry[0 sessions]]]]
2022-03-08 09:24:22.018  INFO 8812 --- [main] o.s.m.s.b.SimpleBrokerMessageHandler     : Started.
2022-03-08 09:24:22.116  WARN 8812 --- [JMX connector] o.a.a.broker.jmx.ManagementContext       : Failed to start jmx connector: Cannot bind to URL [rmi://localhost:1099/jmxrmi]: javax.naming.NameAlreadyBoundException: jmxrmi [Root exception is java.rmi.AlreadyBoundException: jmxrmi]. Will restart management to re-create jmx connector, trying to remedy this issue.
2022-03-08 09:24:22.133  INFO 8812 --- [main] o.a.a.store.kahadb.plist.PListStore      : PListStore:[C:\Users\Mateo Gingr\eclipse-workspace\exerciseAPBA\activemq-data\localhost\tmp_storage] started
2022-03-08 09:24:22.136  INFO 8812 --- [main] o.apache.activemq.broker.BrokerService   : Using Persistence Adapter: KahaDBPersistenceAdapter[C:\Users\Mateo Gingr\eclipse-workspace\exerciseAPBA\activemq-data\localhost\KahaDB]
2022-03-08 09:24:22.358  INFO 8812 --- [main] o.a.a.store.kahadb.MessageDatabase       : KahaDB is version 4
2022-03-08 09:24:22.369  INFO 8812 --- [main] o.a.a.store.kahadb.MessageDatabase       : Recovering from the journal ...
2022-03-08 09:24:22.370  INFO 8812 --- [main] o.a.a.store.kahadb.MessageDatabase       : Recovery replayed 2 operations from the journal in 0.007 seconds.
2022-03-08 09:24:22.549  INFO 8812 --- [main] o.apache.activemq.broker.BrokerService   : Apache ActiveMQ 5.7.0 (localhost, ID:DESKTOP-G7PDN6O-20748-1646727862384-0:1) is starting
2022-03-08 09:24:22.586  INFO 8812 --- [main] o.apache.activemq.broker.BrokerService   : Apache ActiveMQ 5.7.0 (localhost, ID:DESKTOP-G7PDN6O-20748-1646727862384-0:1) started
2022-03-08 09:24:22.586  INFO 8812 --- [main] o.apache.activemq.broker.BrokerService   : For help or more information please see: http://activemq.apache.org
2022-03-08 09:24:22.589  WARN 8812 --- [JMX connector] o.a.a.broker.jmx.ManagementContext       : Failed to start jmx connector: Cannot bind to URL [rmi://localhost:1099/jmxrmi]: javax.naming.NameAlreadyBoundException: jmxrmi [Root exception is java.rmi.AlreadyBoundException: jmxrmi]. Will restart management to re-create jmx connector, trying to remedy this issue.
2022-03-08 09:24:22.593  INFO 8812 --- [main] o.a.activemq.broker.TransportConnector   : Connector vm://localhost Started
2022-03-08 09:24:22.686 ERROR 8812 --- [main] org.apache.catalina.util.LifecycleBase   : Failed to start component [Connector[HTTP/1.1-8080]]

org.apache.catalina.LifecycleException: Protocol handler start failed
	at org.apache.catalina.connector.Connector.startInternal(Connector.java:1008) ~[tomcat-embed-core-9.0.17.jar:9.0.17]
	at org.apache.catalina.util.LifecycleBase.start(LifecycleBase.java:183) ~[tomcat-embed-core-9.0.17.jar:9.0.17]
	at org.apache.catalina.core.StandardService.addConnector(StandardService.java:226) ~[tomcat-embed-core-9.0.17.jar:9.0.17]
	at org.springframework.boot.web.embedded.tomcat.TomcatWebServer.addPreviouslyRemovedConnectors(TomcatWebServer.java:259) ~[spring-boot-2.1.4.RELEASE.jar:2.1.4.RELEASE]
	at org.springframework.boot.web.embedded.tomcat.TomcatWebServer.start(TomcatWebServer.java:197) ~[spring-boot-2.1.4.RELEASE.jar:2.1.4.RELEASE]
	at org.springframework.boot.web.servlet.context.ServletWebServerApplicationContext.startWebServer(ServletWebServerApplicationContext.java:311) ~[spring-boot-2.1.4.RELEASE.jar:2.1.4.RELEASE]
	at org.springframework.boot.web.servlet.context.ServletWebServerApplicationContext.finishRefresh(ServletWebServerApplicationContext.java:164) ~[spring-boot-2.1.4.RELEASE.jar:2.1.4.RELEASE]
	at org.springframework.context.support.AbstractApplicationContext.refresh(AbstractApplicationContext.java:552) ~[spring-context-5.1.6.RELEASE.jar:5.1.6.RELEASE]
	at org.springframework.boot.web.servlet.context.ServletWebServerApplicationContext.refresh(ServletWebServerApplicationContext.java:142) ~[spring-boot-2.1.4.RELEASE.jar:2.1.4.RELEASE]
	at org.springframework.boot.SpringApplication.refresh(SpringApplication.java:775) ~[spring-boot-2.1.4.RELEASE.jar:2.1.4.RELEASE]
	at org.springframework.boot.SpringApplication.refreshContext(SpringApplication.java:397) ~[spring-boot-2.1.4.RELEASE.jar:2.1.4.RELEASE]
	at org.springframework.boot.SpringApplication.run(SpringApplication.java:316) ~[spring-boot-2.1.4.RELEASE.jar:2.1.4.RELEASE]
	at org.springframework.boot.SpringApplication.run(SpringApplication.java:1260) ~[spring-boot-2.1.4.RELEASE.jar:2.1.4.RELEASE]
	at org.springframework.boot.SpringApplication.run(SpringApplication.java:1248) ~[spring-boot-2.1.4.RELEASE.jar:2.1.4.RELEASE]
	at com.apba.exercise.ExerciseBvApplication.main(ExerciseBvApplication.java:15) ~[classes/:na]
Caused by: java.net.BindException: Address already in use: bind
	at java.base/sun.nio.ch.Net.bind0(Native Method) ~[na:na]
	at java.base/sun.nio.ch.Net.bind(Net.java:555) ~[na:na]
	at java.base/sun.nio.ch.ServerSocketChannelImpl.netBind(ServerSocketChannelImpl.java:337) ~[na:na]
	at java.base/sun.nio.ch.ServerSocketChannelImpl.bind(ServerSocketChannelImpl.java:294) ~[na:na]
	at java.base/sun.nio.ch.ServerSocketAdaptor.bind(ServerSocketAdaptor.java:89) ~[na:na]
	at org.apache.tomcat.util.net.NioEndpoint.initServerSocket(NioEndpoint.java:236) ~[tomcat-embed-core-9.0.17.jar:9.0.17]
	at org.apache.tomcat.util.net.NioEndpoint.bind(NioEndpoint.java:210) ~[tomcat-embed-core-9.0.17.jar:9.0.17]
	at org.apache.tomcat.util.net.AbstractEndpoint.bindWithCleanup(AbstractEndpoint.java:1103) ~[tomcat-embed-core-9.0.17.jar:9.0.17]
	at org.apache.tomcat.util.net.AbstractEndpoint.start(AbstractEndpoint.java:1189) ~[tomcat-embed-core-9.0.17.jar:9.0.17]
	at org.apache.coyote.AbstractProtocol.start(AbstractProtocol.java:568) ~[tomcat-embed-core-9.0.17.jar:9.0.17]
	at org.apache.catalina.connector.Connector.startInternal(Connector.java:1005) ~[tomcat-embed-core-9.0.17.jar:9.0.17]
	... 14 common frames omitted

2022-03-08 09:24:22.691  INFO 8812 --- [main] o.apache.catalina.core.StandardService   : Stopping service [Tomcat]
2022-03-08 09:24:22.697  INFO 8812 --- [main] ConditionEvaluationReportLoggingListener : 

Error starting ApplicationContext. To display the conditions report re-run your application with 'debug' enabled.
2022-03-08 09:24:22.699 ERROR 8812 --- [main] o.s.b.d.LoggingFailureAnalysisReporter   : 

***************************
APPLICATION FAILED TO START
***************************

Description:

The Tomcat connector configured to listen on port 8080 failed to start. The port may already be in use or the connector may be misconfigured.

Action:

Verify the connector's configuration, identify and stop any process that's listening on port 8080, or configure this application to listen on another port.

2022-03-08 09:24:22.701  INFO 8812 --- [main] o.s.m.s.b.SimpleBrokerMessageHandler     : Stopping...
2022-03-08 09:24:22.701  INFO 8812 --- [main] o.s.m.s.b.SimpleBrokerMessageHandler     : BrokerAvailabilityEvent[available=false, SimpleBrokerMessageHandler [DefaultSubscriptionRegistry[cache[0 destination(s)], registry[0 sessions]]]]
2022-03-08 09:24:22.701  INFO 8812 --- [main] o.s.m.s.b.SimpleBrokerMessageHandler     : Stopped.
2022-03-08 09:24:23.667  INFO 8812 --- [main] o.a.activemq.broker.TransportConnector   : Connector vm://localhost Stopped
2022-03-08 09:24:23.667  INFO 8812 --- [main] o.apache.activemq.broker.BrokerService   : Apache ActiveMQ 5.7.0 (localhost, ID:DESKTOP-G7PDN6O-20748-1646727862384-0:1) is shutting down
2022-03-08 09:24:23.669  INFO 8812 --- [main] o.a.a.store.kahadb.plist.PListStore      : PListStore:[C:\Users\Mateo Gingr\eclipse-workspace\exerciseAPBA\activemq-data\localhost\tmp_storage] stopped
2022-03-08 09:24:23.669  INFO 8812 --- [main] o.a.activemq.store.kahadb.KahaDBStore    : Stopping async queue tasks
2022-03-08 09:24:23.669  INFO 8812 --- [main] o.a.activemq.store.kahadb.KahaDBStore    : Stopping async topic tasks
2022-03-08 09:24:23.669  INFO 8812 --- [main] o.a.activemq.store.kahadb.KahaDBStore    : Stopped KahaDB
2022-03-08 09:24:23.879  INFO 8812 --- [main] o.apache.activemq.broker.BrokerService   : Apache ActiveMQ 5.7.0 (localhost, ID:DESKTOP-G7PDN6O-20748-1646727862384-0:1) uptime 1.841 seconds
2022-03-08 09:24:23.880  INFO 8812 --- [main] o.apache.activemq.broker.BrokerService   : Apache ActiveMQ 5.7.0 (localhost, ID:DESKTOP-G7PDN6O-20748-1646727862384-0:1) is shutdown
2022-03-08 09:24:23.881  INFO 8812 --- [main] o.s.s.concurrent.ThreadPoolTaskExecutor  : Shutting down ExecutorService 'brokerChannelExecutor'
2022-03-08 09:24:23.882  INFO 8812 --- [main] o.s.s.c.ThreadPoolTaskScheduler          : Shutting down ExecutorService 'messageBrokerTaskScheduler'
2022-03-08 09:24:23.883  INFO 8812 --- [main] o.s.s.concurrent.ThreadPoolTaskExecutor  : Shutting down ExecutorService 'clientOutboundChannelExecutor'
2022-03-08 09:24:23.883  INFO 8812 --- [main] o.s.s.concurrent.ThreadPoolTaskExecutor  : Shutting down ExecutorService 'clientInboundChannelExecutor'
2022-03-08 09:24:23.883  INFO 8812 --- [main] j.LocalContainerEntityManagerFactoryBean : Closing JPA EntityManagerFactory for persistence unit 'default'
2022-03-08 09:24:23.885  INFO 8812 --- [main] com.zaxxer.hikari.HikariDataSource       : HikariPool-1 - Shutdown initiated...
2022-03-08 09:24:23.887  INFO 8812 --- [main] com.zaxxer.hikari.HikariDataSource       : HikariPool-1 - Shutdown completed.
2022-03-08 09:35:31.003  INFO 9884 --- [main] com.apba.exercise.ExerciseBvApplication  : Starting ExerciseBvApplication on DESKTOP-G7PDN6O with PID 9884 (started by Mateo Gingr in C:\Users\Mateo Gingr\eclipse-workspace\exerciseAPBA)
2022-03-08 09:35:31.006  INFO 9884 --- [main] com.apba.exercise.ExerciseBvApplication  : No active profile set, falling back to default profiles: default
2022-03-08 09:35:32.120  INFO 9884 --- [main] .s.d.r.c.RepositoryConfigurationDelegate : Bootstrapping Spring Data repositories in DEFAULT mode.
2022-03-08 09:35:32.262  INFO 9884 --- [main] .s.d.r.c.RepositoryConfigurationDelegate : Finished Spring Data repository scanning in 131ms. Found 1 repository interfaces.
2022-03-08 09:35:32.769  INFO 9884 --- [main] trationDelegate$BeanPostProcessorChecker : Bean 'org.springframework.transaction.annotation.ProxyTransactionManagementConfiguration' of type [org.springframework.transaction.annotation.ProxyTransactionManagementConfiguration$$EnhancerBySpringCGLIB$$613bbced] is not eligible for getting processed by all BeanPostProcessors (for example: not eligible for auto-proxying)
2022-03-08 09:35:33.116  INFO 9884 --- [main] o.s.b.w.embedded.tomcat.TomcatWebServer  : Tomcat initialized with port(s): 8080 (http)
2022-03-08 09:35:33.150  INFO 9884 --- [main] o.apache.catalina.core.StandardService   : Starting service [Tomcat]
2022-03-08 09:35:33.151  INFO 9884 --- [main] org.apache.catalina.core.StandardEngine  : Starting Servlet engine: [Apache Tomcat/9.0.17]
2022-03-08 09:35:33.319  INFO 9884 --- [main] o.a.c.c.C.[Tomcat].[localhost].[/]       : Initializing Spring embedded WebApplicationContext
2022-03-08 09:35:33.319  INFO 9884 --- [main] o.s.web.context.ContextLoader            : Root WebApplicationContext: initialization completed in 2271 ms
2022-03-08 09:35:33.918  INFO 9884 --- [main] com.zaxxer.hikari.HikariDataSource       : HikariPool-1 - Starting...
2022-03-08 09:35:34.079  INFO 9884 --- [main] com.zaxxer.hikari.HikariDataSource       : HikariPool-1 - Start completed.
2022-03-08 09:35:34.135  INFO 9884 --- [main] o.hibernate.jpa.internal.util.LogHelper  : HHH000204: Processing PersistenceUnitInfo [
	name: default
	...]
2022-03-08 09:35:34.217  INFO 9884 --- [main] org.hibernate.Version                    : HHH000412: Hibernate Core {5.3.9.Final}
2022-03-08 09:35:34.219  INFO 9884 --- [main] org.hibernate.cfg.Environment            : HHH000206: hibernate.properties not found
2022-03-08 09:35:34.365  INFO 9884 --- [main] o.hibernate.annotations.common.Version   : HCANN000001: Hibernate Commons Annotations {5.0.4.Final}
2022-03-08 09:35:34.503  INFO 9884 --- [main] org.hibernate.dialect.Dialect            : HHH000400: Using dialect: org.hibernate.dialect.H2Dialect
2022-03-08 09:35:35.047  INFO 9884 --- [main] o.h.t.schema.internal.SchemaCreatorImpl  : HHH000476: Executing import script 'org.hibernate.tool.schema.internal.exec.ScriptSourceInputNonExistentImpl@250e8712'
2022-03-08 09:35:35.049  INFO 9884 --- [main] j.LocalContainerEntityManagerFactoryBean : Initialized JPA EntityManagerFactory for persistence unit 'default'
2022-03-08 09:35:35.424  INFO 9884 --- [main] o.s.s.concurrent.ThreadPoolTaskExecutor  : Initializing ExecutorService 'clientInboundChannelExecutor'
2022-03-08 09:35:35.428  INFO 9884 --- [main] o.s.s.concurrent.ThreadPoolTaskExecutor  : Initializing ExecutorService 'clientOutboundChannelExecutor'
2022-03-08 09:35:35.518  INFO 9884 --- [main] o.s.s.c.ThreadPoolTaskScheduler          : Initializing ExecutorService 'messageBrokerTaskScheduler'
2022-03-08 09:35:35.547  INFO 9884 --- [main] o.s.s.concurrent.ThreadPoolTaskExecutor  : Initializing ExecutorService 'brokerChannelExecutor'
2022-03-08 09:35:35.792  WARN 9884 --- [main] aWebConfiguration$JpaWebMvcConfiguration : spring.jpa.open-in-view is enabled by default. Therefore, database queries may be performed during view rendering. Explicitly configure spring.jpa.open-in-view to disable this warning
2022-03-08 09:35:35.862  INFO 9884 --- [main] o.s.b.a.w.s.WelcomePageHandlerMapping    : Adding welcome page: class path resource [static/index.html]
2022-03-08 09:35:36.108  INFO 9884 --- [main] o.s.b.a.e.web.EndpointLinksResolver      : Exposing 2 endpoint(s) beneath base path '/actuator'
2022-03-08 09:35:36.169  INFO 9884 --- [main] o.s.m.s.b.SimpleBrokerMessageHandler     : Starting...
2022-03-08 09:35:36.169  INFO 9884 --- [main] o.s.m.s.b.SimpleBrokerMessageHandler     : BrokerAvailabilityEvent[available=true, SimpleBrokerMessageHandler [DefaultSubscriptionRegistry[cache[0 destination(s)], registry[0 sessions]]]]
2022-03-08 09:35:36.170  INFO 9884 --- [main] o.s.m.s.b.SimpleBrokerMessageHandler     : Started.
2022-03-08 09:35:36.268  INFO 9884 --- [JMX connector] o.a.a.broker.jmx.ManagementContext       : JMX consoles can connect to service:jmx:rmi:///jndi/rmi://localhost:1099/jmxrmi
2022-03-08 09:35:36.283  INFO 9884 --- [main] o.a.a.store.kahadb.plist.PListStore      : PListStore:[C:\Users\Mateo Gingr\eclipse-workspace\exerciseAPBA\activemq-data\localhost\tmp_storage] started
2022-03-08 09:35:36.285  INFO 9884 --- [main] o.apache.activemq.broker.BrokerService   : Using Persistence Adapter: KahaDBPersistenceAdapter[C:\Users\Mateo Gingr\eclipse-workspace\exerciseAPBA\activemq-data\localhost\KahaDB]
2022-03-08 09:35:36.500  INFO 9884 --- [main] o.a.a.store.kahadb.MessageDatabase       : KahaDB is version 4
2022-03-08 09:35:36.510  INFO 9884 --- [main] o.a.a.store.kahadb.MessageDatabase       : Recovering from the journal ...
2022-03-08 09:35:36.511  INFO 9884 --- [main] o.a.a.store.kahadb.MessageDatabase       : Recovery replayed 1 operations from the journal in 0.007 seconds.
2022-03-08 09:35:36.667  INFO 9884 --- [main] o.apache.activemq.broker.BrokerService   : Apache ActiveMQ 5.7.0 (localhost, ID:DESKTOP-G7PDN6O-20919-1646728536527-0:1) is starting
2022-03-08 09:35:36.698  INFO 9884 --- [main] o.apache.activemq.broker.BrokerService   : Apache ActiveMQ 5.7.0 (localhost, ID:DESKTOP-G7PDN6O-20919-1646728536527-0:1) started
2022-03-08 09:35:36.699  INFO 9884 --- [main] o.apache.activemq.broker.BrokerService   : For help or more information please see: http://activemq.apache.org
2022-03-08 09:35:36.703  INFO 9884 --- [main] o.a.activemq.broker.TransportConnector   : Connector vm://localhost Started
2022-03-08 09:35:36.794  INFO 9884 --- [main] o.s.b.w.embedded.tomcat.TomcatWebServer  : Tomcat started on port(s): 8080 (http) with context path ''
2022-03-08 09:35:36.796  INFO 9884 --- [main] com.apba.exercise.ExerciseBvApplication  : Started ExerciseBvApplication in 6.158 seconds (JVM running for 6.65)
2022-03-08 09:36:35.548  INFO 9884 --- [MessageBroker-1] o.s.w.s.c.WebSocketMessageBrokerStats    : WebSocketSession[0 current WS(0)-HttpStream(0)-HttpPoll(0), 0 total, 0 closed abnormally (0 connect failure, 0 send limit, 0 transport error)], stompSubProtocol[processed CONNECT(0)-CONNECTED(0)-DISCONNECT(0)], stompBrokerRelay[null], inboundChannel[pool size = 0, active threads = 0, queued tasks = 0, completed tasks = 0], outboundChannel[pool size = 0, active threads = 0, queued tasks = 0, completed tasks = 0], sockJsScheduler[pool size = 1, active threads = 1, queued tasks = 0, completed tasks = 0]
2022-03-08 10:06:35.546  INFO 9884 --- [MessageBroker-1] o.s.w.s.c.WebSocketMessageBrokerStats    : WebSocketSession[0 current WS(0)-HttpStream(0)-HttpPoll(0), 0 total, 0 closed abnormally (0 connect failure, 0 send limit, 0 transport error)], stompSubProtocol[processed CONNECT(0)-CONNECTED(0)-DISCONNECT(0)], stompBrokerRelay[null], inboundChannel[pool size = 0, active threads = 0, queued tasks = 0, completed tasks = 0], outboundChannel[pool size = 0, active threads = 0, queued tasks = 0, completed tasks = 0], sockJsScheduler[pool size = 2, active threads = 1, queued tasks = 0, completed tasks = 1]
2022-03-08 10:29:19.502  INFO 22160 --- [main] com.apba.exercise.ExerciseBvApplication  : Starting ExerciseBvApplication on DESKTOP-G7PDN6O with PID 22160 (started by Mateo Gingr in C:\Users\Mateo Gingr\eclipse-workspace\exerciseAPBA)
2022-03-08 10:29:19.505  INFO 22160 --- [main] com.apba.exercise.ExerciseBvApplication  : No active profile set, falling back to default profiles: default
2022-03-08 10:29:20.542  INFO 22160 --- [main] .s.d.r.c.RepositoryConfigurationDelegate : Bootstrapping Spring Data repositories in DEFAULT mode.
2022-03-08 10:29:20.702  INFO 22160 --- [main] .s.d.r.c.RepositoryConfigurationDelegate : Finished Spring Data repository scanning in 152ms. Found 1 repository interfaces.
2022-03-08 10:29:21.258  INFO 22160 --- [main] trationDelegate$BeanPostProcessorChecker : Bean 'org.springframework.transaction.annotation.ProxyTransactionManagementConfiguration' of type [org.springframework.transaction.annotation.ProxyTransactionManagementConfiguration$$EnhancerBySpringCGLIB$$a6a32899] is not eligible for getting processed by all BeanPostProcessors (for example: not eligible for auto-proxying)
2022-03-08 10:29:21.626  INFO 22160 --- [main] o.s.b.w.embedded.tomcat.TomcatWebServer  : Tomcat initialized with port(s): 8080 (http)
2022-03-08 10:29:21.659  INFO 22160 --- [main] o.apache.catalina.core.StandardService   : Starting service [Tomcat]
2022-03-08 10:29:21.659  INFO 22160 --- [main] org.apache.catalina.core.StandardEngine  : Starting Servlet engine: [Apache Tomcat/9.0.17]
2022-03-08 10:29:21.812  INFO 22160 --- [main] o.a.c.c.C.[Tomcat].[localhost].[/]       : Initializing Spring embedded WebApplicationContext
2022-03-08 10:29:21.812  INFO 22160 --- [main] o.s.web.context.ContextLoader            : Root WebApplicationContext: initialization completed in 2262 ms
2022-03-08 10:29:22.455  INFO 22160 --- [main] com.zaxxer.hikari.HikariDataSource       : HikariPool-1 - Starting...
2022-03-08 10:29:22.625  INFO 22160 --- [main] com.zaxxer.hikari.HikariDataSource       : HikariPool-1 - Start completed.
2022-03-08 10:29:22.683  INFO 22160 --- [main] o.hibernate.jpa.internal.util.LogHelper  : HHH000204: Processing PersistenceUnitInfo [
	name: default
	...]
2022-03-08 10:29:22.771  INFO 22160 --- [main] org.hibernate.Version                    : HHH000412: Hibernate Core {5.3.9.Final}
2022-03-08 10:29:22.774  INFO 22160 --- [main] org.hibernate.cfg.Environment            : HHH000206: hibernate.properties not found
2022-03-08 10:29:22.941  INFO 22160 --- [main] o.hibernate.annotations.common.Version   : HCANN000001: Hibernate Commons Annotations {5.0.4.Final}
2022-03-08 10:29:23.096  INFO 22160 --- [main] org.hibernate.dialect.Dialect            : HHH000400: Using dialect: org.hibernate.dialect.H2Dialect
2022-03-08 10:29:23.714  INFO 22160 --- [main] o.h.t.schema.internal.SchemaCreatorImpl  : HHH000476: Executing import script 'org.hibernate.tool.schema.internal.exec.ScriptSourceInputNonExistentImpl@296bfddb'
2022-03-08 10:29:23.716  INFO 22160 --- [main] j.LocalContainerEntityManagerFactoryBean : Initialized JPA EntityManagerFactory for persistence unit 'default'
2022-03-08 10:29:24.118  INFO 22160 --- [main] o.s.s.concurrent.ThreadPoolTaskExecutor  : Initializing ExecutorService 'clientInboundChannelExecutor'
2022-03-08 10:29:24.124  INFO 22160 --- [main] o.s.s.concurrent.ThreadPoolTaskExecutor  : Initializing ExecutorService 'clientOutboundChannelExecutor'
2022-03-08 10:29:24.229  INFO 22160 --- [main] o.s.s.c.ThreadPoolTaskScheduler          : Initializing ExecutorService 'messageBrokerTaskScheduler'
2022-03-08 10:29:24.261  INFO 22160 --- [main] o.s.s.concurrent.ThreadPoolTaskExecutor  : Initializing ExecutorService 'brokerChannelExecutor'
2022-03-08 10:29:24.497  WARN 22160 --- [main] aWebConfiguration$JpaWebMvcConfiguration : spring.jpa.open-in-view is enabled by default. Therefore, database queries may be performed during view rendering. Explicitly configure spring.jpa.open-in-view to disable this warning
2022-03-08 10:29:24.561  INFO 22160 --- [main] o.s.b.a.w.s.WelcomePageHandlerMapping    : Adding welcome page: class path resource [static/index.html]
2022-03-08 10:29:24.820  INFO 22160 --- [main] o.s.b.a.e.web.EndpointLinksResolver      : Exposing 2 endpoint(s) beneath base path '/actuator'
2022-03-08 10:29:24.880  INFO 22160 --- [main] o.s.m.s.b.SimpleBrokerMessageHandler     : Starting...
2022-03-08 10:29:24.881  INFO 22160 --- [main] o.s.m.s.b.SimpleBrokerMessageHandler     : BrokerAvailabilityEvent[available=true, SimpleBrokerMessageHandler [DefaultSubscriptionRegistry[cache[0 destination(s)], registry[0 sessions]]]]
2022-03-08 10:29:24.881  INFO 22160 --- [main] o.s.m.s.b.SimpleBrokerMessageHandler     : Started.
2022-03-08 10:29:24.979  INFO 22160 --- [JMX connector] o.a.a.broker.jmx.ManagementContext       : JMX consoles can connect to service:jmx:rmi:///jndi/rmi://localhost:1099/jmxrmi
2022-03-08 10:29:24.991  INFO 22160 --- [main] o.a.a.store.kahadb.plist.PListStore      : PListStore:[C:\Users\Mateo Gingr\eclipse-workspace\exerciseAPBA\activemq-data\localhost\tmp_storage] started
2022-03-08 10:29:24.994  INFO 22160 --- [main] o.apache.activemq.broker.BrokerService   : Using Persistence Adapter: KahaDBPersistenceAdapter[C:\Users\Mateo Gingr\eclipse-workspace\exerciseAPBA\activemq-data\localhost\KahaDB]
2022-03-08 10:29:25.214  INFO 22160 --- [main] o.a.a.store.kahadb.MessageDatabase       : KahaDB is version 4
2022-03-08 10:29:25.230  INFO 22160 --- [main] o.a.a.store.kahadb.MessageDatabase       : Recovering from the journal ...
2022-03-08 10:29:25.232  INFO 22160 --- [main] o.a.a.store.kahadb.MessageDatabase       : Recovery replayed 2 operations from the journal in 0.009 seconds.
2022-03-08 10:29:25.402  INFO 22160 --- [main] o.apache.activemq.broker.BrokerService   : Apache ActiveMQ 5.7.0 (localhost, ID:DESKTOP-G7PDN6O-22318-1646731765247-0:1) is starting
2022-03-08 10:29:25.442  INFO 22160 --- [main] o.apache.activemq.broker.BrokerService   : Apache ActiveMQ 5.7.0 (localhost, ID:DESKTOP-G7PDN6O-22318-1646731765247-0:1) started
2022-03-08 10:29:25.443  INFO 22160 --- [main] o.apache.activemq.broker.BrokerService   : For help or more information please see: http://activemq.apache.org
2022-03-08 10:29:25.447  INFO 22160 --- [main] o.a.activemq.broker.TransportConnector   : Connector vm://localhost Started
2022-03-08 10:29:25.539  INFO 22160 --- [main] o.s.b.w.embedded.tomcat.TomcatWebServer  : Tomcat started on port(s): 8080 (http) with context path ''
2022-03-08 10:29:25.541  INFO 22160 --- [main] com.apba.exercise.ExerciseBvApplication  : Started ExerciseBvApplication in 6.432 seconds (JVM running for 6.883)
2022-03-08 10:30:24.264  INFO 22160 --- [MessageBroker-1] o.s.w.s.c.WebSocketMessageBrokerStats    : WebSocketSession[0 current WS(0)-HttpStream(0)-HttpPoll(0), 0 total, 0 closed abnormally (0 connect failure, 0 send limit, 0 transport error)], stompSubProtocol[processed CONNECT(0)-CONNECTED(0)-DISCONNECT(0)], stompBrokerRelay[null], inboundChannel[pool size = 0, active threads = 0, queued tasks = 0, completed tasks = 0], outboundChannel[pool size = 0, active threads = 0, queued tasks = 0, completed tasks = 0], sockJsScheduler[pool size = 1, active threads = 1, queued tasks = 0, completed tasks = 0]
2022-03-08 11:00:24.262  INFO 22160 --- [MessageBroker-1] o.s.w.s.c.WebSocketMessageBrokerStats    : WebSocketSession[0 current WS(0)-HttpStream(0)-HttpPoll(0), 0 total, 0 closed abnormally (0 connect failure, 0 send limit, 0 transport error)], stompSubProtocol[processed CONNECT(0)-CONNECTED(0)-DISCONNECT(0)], stompBrokerRelay[null], inboundChannel[pool size = 0, active threads = 0, queued tasks = 0, completed tasks = 0], outboundChannel[pool size = 0, active threads = 0, queued tasks = 0, completed tasks = 0], sockJsScheduler[pool size = 2, active threads = 1, queued tasks = 0, completed tasks = 1]
2022-03-08 11:30:24.262  INFO 22160 --- [MessageBroker-2] o.s.w.s.c.WebSocketMessageBrokerStats    : WebSocketSession[0 current WS(0)-HttpStream(0)-HttpPoll(0), 0 total, 0 closed abnormally (0 connect failure, 0 send limit, 0 transport error)], stompSubProtocol[processed CONNECT(0)-CONNECTED(0)-DISCONNECT(0)], stompBrokerRelay[null], inboundChannel[pool size = 0, active threads = 0, queued tasks = 0, completed tasks = 0], outboundChannel[pool size = 0, active threads = 0, queued tasks = 0, completed tasks = 0], sockJsScheduler[pool size = 3, active threads = 1, queued tasks = 0, completed tasks = 2]
2022-03-08 12:00:24.262  INFO 22160 --- [MessageBroker-1] o.s.w.s.c.WebSocketMessageBrokerStats    : WebSocketSession[0 current WS(0)-HttpStream(0)-HttpPoll(0), 0 total, 0 closed abnormally (0 connect failure, 0 send limit, 0 transport error)], stompSubProtocol[processed CONNECT(0)-CONNECTED(0)-DISCONNECT(0)], stompBrokerRelay[null], inboundChannel[pool size = 0, active threads = 0, queued tasks = 0, completed tasks = 0], outboundChannel[pool size = 0, active threads = 0, queued tasks = 0, completed tasks = 0], sockJsScheduler[pool size = 4, active threads = 1, queued tasks = 0, completed tasks = 3]
